<?xml version="1.0" standalone="no"?>
<!DOCTYPE svg PUBLIC "-//W3C//DTD SVG 20010904//EN"
 "http://www.w3.org/TR/2001/REC-SVG-20010904/DTD/svg10.dtd">
<svg version="1.0" xmlns="http://www.w3.org/2000/svg"
 width="300.000000pt" height="300.000000pt" viewBox="0 0 300.000000 300.000000"
 preserveAspectRatio="xMidYMid meet">
<metadata>
Created by potrace 1.11, written by Peter Selinger 2001-2013
</metadata>
<g transform="translate(0.000000,300.000000) scale(0.100000,-0.100000)"
fill="#000000" stroke="none">
<path d="M1475 2890 c-22 -32 -98 -142 -170 -244 -123 -175 -152 -205 -170
-176 -4 6 -21 17 -38 25 -18 8 -52 26 -77 41 -115 67 -360 204 -365 204 -4 0
-4 -42 -1 -92 4 -51 9 -129 12 -173 7 -117 12 -179 19 -282 4 -52 4 -93 -1
-93 -5 0 -74 -16 -154 -35 -80 -20 -203 -49 -275 -65 -160 -37 -158 -36 -148
-54 4 -8 58 -67 118 -132 157 -168 211 -227 234 -253 l21 -24 -29 -36 c-16
-20 -38 -45 -48 -56 -94 -100 -311 -355 -305 -359 4 -2 59 -18 122 -34 121
-32 175 -47 330 -89 52 -14 101 -26 108 -26 17 -1 14 -43 -23 -297 -3 -22 -7
-50 -19 -150 -2 -14 -7 -51 -11 -83 l-7 -58 49 19 c26 11 151 60 277 111 126
51 230 91 231 89 1 -2 71 -119 155 -261 85 -142 157 -254 161 -250 4 4 74 121
154 258 81 138 150 254 155 258 4 5 123 -48 264 -117 142 -69 260 -126 263
-126 5 0 2 26 -12 135 -2 11 -8 58 -14 105 -19 137 -21 155 -25 175 -2 11 -7
45 -10 76 -4 31 -9 66 -11 78 -2 12 1 21 8 22 7 0 19 2 28 4 8 1 42 6 75 9 32
4 145 18 249 31 105 13 215 27 245 31 30 3 56 7 58 9 2 2 -182 193 -364 376
l-95 95 235 234 c130 129 235 235 233 236 -1 1 -22 5 -47 9 -42 6 -202 31
-260 40 -14 2 -56 9 -95 15 -38 6 -81 13 -95 15 -14 2 -45 7 -70 10 -71 11
-75 12 -74 21 1 5 5 32 8 59 3 28 8 59 10 70 2 11 7 45 11 75 4 30 9 64 11 75
2 11 6 40 9 65 3 25 10 70 15 100 5 30 12 71 14 90 3 20 8 48 11 63 4 15 4 27
0 27 -8 0 -63 -26 -250 -115 -77 -37 -174 -83 -215 -102 -41 -19 -83 -39 -93
-44 -15 -8 -23 3 -58 78 -23 48 -68 144 -101 213 -33 69 -71 151 -86 182 -15
32 -29 58 -32 58 -3 0 -23 -27 -45 -60z m80 -305 c30 -64 68 -143 85 -176 16
-34 30 -65 30 -71 0 -9 -191 -240 -195 -236 -9 10 -128 163 -164 210 l-43 58
53 78 c30 42 81 116 114 164 33 48 61 87 63 88 2 0 27 -52 57 -115z m-468
-232 c34 -19 68 -45 77 -58 9 -13 36 -49 62 -80 25 -31 43 -59 41 -62 -3 -3
-54 14 -114 37 l-108 41 -45 72 c-25 39 -56 89 -69 111 l-24 40 59 -34 c32
-18 87 -48 121 -67z m973 44 c0 -2 -29 -41 -64 -87 l-65 -84 -123 -43 c-68
-24 -125 -43 -127 -43 -3 0 84 105 104 125 5 6 60 34 120 63 61 29 117 57 125
62 15 9 30 13 30 7z m-1176 -150 l48 -77 2 -135 c1 -74 1 -135 0 -135 -1 0
-47 72 -100 155 -7 11 -16 58 -19 105 -3 47 -8 114 -11 149 -4 64 -4 64 14 40
10 -13 40 -59 66 -102z m1282 26 c-3 -32 -8 -67 -10 -78 -4 -21 -12 -74 -22
-140 -5 -35 -78 -154 -105 -171 -5 -3 -7 13 -5 38 3 24 6 84 7 134 l1 90 64
83 c35 46 64 87 64 92 0 5 3 9 6 9 3 0 3 -26 0 -57z m-1031 -213 c11 -5 76
-30 144 -56 67 -26 125 -52 127 -58 4 -15 11 -335 7 -340 -4 -4 -329 107 -338
116 -3 3 -8 87 -10 187 l-4 180 27 -11 c15 -6 36 -14 47 -18z m761 -92 c-2
-62 -5 -145 -5 -184 l-1 -72 -57 -20 c-116 -42 -277 -90 -284 -86 -4 2 -8 73
-9 157 0 83 -2 161 -3 171 -2 16 25 29 178 82 99 35 181 63 183 63 2 1 1 -50
-2 -111z m-1081 -120 c47 -70 85 -132 85 -136 0 -4 -51 -22 -113 -41 -61 -19
-131 -40 -154 -47 -49 -15 -39 -23 -178 131 -44 48 -88 95 -97 104 -10 8 -18
18 -18 22 0 4 62 21 138 39 75 17 157 38 181 44 25 7 51 13 58 13 7 0 51 -58
98 -129z m1595 47 c58 -9 119 -18 135 -21 17 -2 39 -6 50 -8 11 -3 27 -5 35
-5 16 -1 -283 -301 -300 -301 -5 0 -54 20 -107 45 -54 25 -115 53 -136 63
l-38 17 83 118 83 118 45 -5 c25 -2 92 -12 150 -21z m-1035 -417 c3 -3 -194
-280 -207 -294 -6 -5 -366 81 -375 90 -3 2 50 76 116 164 l120 160 172 -59
c95 -32 173 -60 174 -61z m646 -30 c51 -73 100 -145 110 -159 l18 -26 -152
-42 c-84 -23 -160 -44 -170 -46 -10 -2 -27 -7 -37 -10 -14 -5 -36 24 -114 152
l-96 158 157 52 c87 28 165 52 175 52 10 1 51 -48 109 -131z m-1198 89 c-35
-56 -188 -247 -201 -251 -10 -3 -62 -14 -116 -26 -55 -11 -103 -23 -108 -26
-4 -3 -8 -1 -8 5 0 5 3 11 8 13 4 2 53 55 109 119 70 79 112 118 130 123 16 3
64 17 108 30 44 14 81 25 83 25 2 1 -1 -5 -5 -12z m1599 -226 c62 -63 104
-111 93 -107 -11 4 -60 21 -110 37 -49 16 -95 32 -101 36 -6 5 -28 33 -49 63
-21 30 -54 76 -72 101 -18 26 -33 49 -33 52 0 3 36 -11 80 -31 70 -32 93 -50
192 -151z m-928 62 c3 -10 44 -78 90 -152 l83 -134 -85 -126 c-47 -69 -93
-136 -103 -149 -17 -22 -18 -21 -113 134 l-96 155 32 48 c91 131 172 241 178
241 4 0 10 -8 14 -17z m-669 -244 c22 -5 54 -12 70 -15 58 -11 55 -13 -61 -45
l-91 -25 -79 22 c-44 13 -103 28 -133 35 -53 11 -58 23 -11 33 14 3 38 8 54
11 16 3 45 9 65 13 22 5 57 3 91 -6 30 -7 73 -18 95 -23z m1580 -23 c39 -13
68 -25 65 -26 -3 -1 -18 -3 -35 -5 -16 -2 -50 -7 -75 -10 -25 -3 -58 -8 -75
-10 -88 -14 -126 -12 -204 7 l-85 21 39 14 c21 7 48 15 59 18 12 2 50 12 86
23 72 20 79 19 225 -32z m-1280 -183 c-2 -49 -5 -119 -6 -156 -1 -37 -7 -71
-13 -75 -10 -6 -347 -142 -352 -142 -2 0 -1 10 1 22 4 19 14 91 19 143 2 11 6
47 11 80 11 80 13 97 14 116 1 10 21 21 59 33 186 54 258 73 263 70 4 -2 5
-43 4 -91z m847 35 c68 -17 126 -36 129 -41 4 -5 10 -39 14 -76 12 -100 13
-110 26 -199 7 -45 10 -85 7 -88 -3 -3 -78 31 -167 75 l-161 81 -1 83 c-1 45
-2 107 -4 137 -2 63 2 73 21 66 7 -3 69 -20 136 -38z m-280 -178 l3 -95 -59
-100 c-32 -55 -68 -117 -79 -137 -11 -21 -22 -36 -24 -34 -2 2 -4 55 -6 117
l-2 115 79 117 c44 64 80 116 82 115 1 -2 4 -46 6 -98z m-360 -23 l67 -113 0
-115 c-1 -133 5 -135 -93 36 -57 99 -63 115 -60 160 1 28 2 71 3 98 1 26 4 47
9 47 4 0 37 -51 74 -113z"/>
</g>
</svg>
